dump.vcd
$date
Sun Jul 30 16:44:52 2023
$end
$version
Riviera-PRO Version 2022.04.117.8517
$end
$timescale
1 ns
$end

$scope module tb $end

$scope module vif $end
$var reg 1 ! clk $end
$var reg 1 " rst $end
$var reg 1 # din $end
$var reg 1 $ dout $end
$upscope $end


$scope module dut $end
$upscope $end

$upscope $end

$enddefinitions $end
$dumpvars
0!
1"
x#
x$
$end
#10
1!
0$
#20
0!
#30
1!
#40
0!
#50
1!
#60
0!
#70
1!
#80
0!
#90
1!
0"
#100
0!
#110
1!
x$
1#
#120
0!
#130
1!
1$
#140
0!
#150
1!
0#
#160
0!
#170
1!
0$
#180
0!
#190
1!
#200
0!
#210
1!
#220
0!
#230
1!
#240
0!
#250
1!
#260
0!
#270
1!
1#
#280
0!
#290
1!
1$
#300
0!
#310
1!
0#
#320
0!
#330
1!
0$
#340
0!
#350
1!
#360
0!
#370
1!
#380
0!
#390
1!
1#
#400
0!
#410
1!
1$
#420
0!
#430
1!
0#
#440
0!
#450
1!
0$
#460
0!
#470
1!
1#
#480
0!
#490
1!
1$
#500
0!
#510
1!
0#
#520
0!
#530
1!
0$
#540
0!
#550
1!
#560
0!
#570
1!
#580
0!
#590
1!
#600
0!
#610
1!
#620
0!
#630
1!
#640
0!
#650
1!
#660
0!
#670
1!
1#
#680
0!
#690
1!
1$
#700
0!
#710
1!
0#
#720
0!
#730
1!
0$
#740
0!
#750
1!
#760
0!
#770
1!
#780
0!
#790
1!
1#
#800
0!
#810
1!
1$
#820
0!
#830
1!
0#
#840
0!
#850
1!
0$
